#set of jobs
set jobs := 1 2 3 4;

#set of people
set people := 1 2 3 4;

#set of time periods
set time_periods := 1 2 3 4;

#cost of assigning a person to a job at an interval
param cost :=
1 1 1 1 
1 2 1 2
1 3 1 3
1 4 1 4
1 1 2 5
1 2 2 6
1 3 2 7
1 4 2 8
1 1 3 9
1 2 3 10
1 3 3 11
1 4 3 12 
1 1 4 13
1 2 4 14
1 3 4 15
1 4 4 16
2 1 1 17
2 2 1 18
2 3 1 19
2 4 1 20
2 1 2 21
2 2 2 22
2 3 2 23
2 4 2 24
2 1 3 25
2 2 3 26
2 3 3 27
2 4 3 28
2 1 4 29
2 2 4 30
2 3 4 31
2 4 4 32
3 1 1 33
3 2 1 34
3 3 1 35
3 4 1 36
3 1 2 37
3 2 2 38
3 3 2 39
3 4 2 40
3 1 3 41
3 2 3 42
3 3 3 43
3 4 3 44
3 1 4 45
3 2 4 46
3 3 4 47
3 4 4 48
4 1 1 49
4 2 1 50
4 3 1 51
4 4 1 52
4 1 2 53
4 2 2 54
4 3 2 55
4 4 2 56
4 1 3 57
4 2 3 58
4 3 3 59
4 4 3 60
4 1 4 61
4 2 4 62
4 3 4 63
4 4 4 64
;
